\relax 
\catcode `"\active 
\select@language{russian}
\@writefile{toc}{\select@language{russian}}
\@writefile{lof}{\select@language{russian}}
\@writefile{lot}{\select@language{russian}}
\@writefile{toc}{\contentsline {section}{\numberline {1.1}\IeC {\CYRI }\IeC {\cyrs }\IeC {\cyrh }\IeC {\cyro }\IeC {\cyrd }\IeC {\cyrn }\IeC {\cyrery }\IeC {\cyre } \IeC {\cyrp }\IeC {\cyro }\IeC {\cyrn }\IeC {\cyrya }\IeC {\cyrt }\IeC {\cyri }\IeC {\cyrya }}{3}}
\@writefile{lof}{\contentsline {figure}{\numberline {1.1}{\ignorespaces \IeC {\CYRS }\IeC {\cyri }\IeC {\cyrs }\IeC {\cyrt }\IeC {\cyre }\IeC {\cyrm }\IeC {\cyra } \IeC {\cyrs } \IeC {\cyri }\IeC {\cyrm }\IeC {\cyrp }\IeC {\cyru }\IeC {\cyrl }\IeC {\cyrsftsn }\IeC {\cyrs }\IeC {\cyrn }\IeC {\cyrery }\IeC {\cyrm } \IeC {\cyrerev }\IeC {\cyrl }\IeC {\cyre }\IeC {\cyrm }\IeC {\cyre }\IeC {\cyrn }\IeC {\cyrt }\IeC {\cyro }\IeC {\cyrm }}}{3}}
\newlabel{ris:Fig2_1}{{1.1}{3}}
\@writefile{lof}{\contentsline {figure}{\numberline {1.2}{\ignorespaces \IeC {\CYRI }\IeC {\cyrm }\IeC {\cyrp }\IeC {\cyru }\IeC {\cyrl }\IeC {\cyrsftsn }\IeC {\cyrs }\IeC {\cyrn }\IeC {\cyra }\IeC {\cyrya } \IeC {\cyrs }\IeC {\cyri }\IeC {\cyrs }\IeC {\cyrt }\IeC {\cyre }\IeC {\cyrm }\IeC {\cyra } \IeC {\cyrs } \IeC {\CYRC }\IeC {\CYRU }\IeC {\CYRM }}}{4}}
\newlabel{ris:Fig2_2}{{1.2}{4}}
\@writefile{toc}{\contentsline {section}{\numberline {1.2}\IeC {\CYRI }\IeC {\cyrd }\IeC {\cyre }\IeC {\cyra }\IeC {\cyrl }\IeC {\cyrsftsn }\IeC {\cyrn }\IeC {\cyrery }\IeC {\cyrishrt } \IeC {\cyri }\IeC {\cyrm }\IeC {\cyrp }\IeC {\cyru }\IeC {\cyrl }\IeC {\cyrsftsn }\IeC {\cyrs }\IeC {\cyrn }\IeC {\cyrery }\IeC {\cyrishrt } \IeC {\cyrerev }\IeC {\cyrl }\IeC {\cyre }\IeC {\cyrm }\IeC {\cyre }\IeC {\cyrn }\IeC {\cyrt } \IeC {\cyri } \IeC {\cyrf }\IeC {\cyro }\IeC {\cyrr }\IeC {\cyrm }\IeC {\cyri }\IeC {\cyrr }\IeC {\cyru }\IeC {\cyryu }\IeC {\cyrshch }\IeC {\cyre }\IeC {\cyre } \IeC {\cyrz }\IeC {\cyrv }\IeC {\cyre }\IeC {\cyrn }\IeC {\cyro }}{4}}
\@writefile{lof}{\contentsline {figure}{\numberline {1.3}{\ignorespaces \IeC {\CYRO }\IeC {\cyrb }\IeC {\cyro }\IeC {\cyrb }\IeC {\cyrshch }\IeC {\cyra }\IeC {\cyryu }\IeC {\cyrshch }\IeC {\cyri }\IeC {\cyrishrt } \IeC {\cyrp }\IeC {\cyro }\IeC {\cyrd }\IeC {\cyrh }\IeC {\cyro }\IeC {\cyrd } \IeC {\cyrk } \IeC {\cyrm }\IeC {\cyra }\IeC {\cyrt }\IeC {\cyre }\IeC {\cyrm }\IeC {\cyra }\IeC {\cyrt }\IeC {\cyri }\IeC {\cyrch }\IeC {\cyre }\IeC {\cyrs }\IeC {\cyrk }\IeC {\cyro }\IeC {\cyrm }\IeC {\cyru } \IeC {\cyro }\IeC {\cyrp }\IeC {\cyri }\IeC {\cyrs }\IeC {\cyra }\IeC {\cyrn }\IeC {\cyri }\IeC {\cyryu } \IeC {\cyri }\IeC {\cyrm }\IeC {\cyrp }\IeC {\cyru }\IeC {\cyrl }\IeC {\cyrsftsn }\IeC {\cyrs }\IeC {\cyrn }\IeC {\cyro }\IeC {\cyrg }\IeC {\cyro } \IeC {\cyrerev }\IeC {\cyrl }\IeC {\cyre }\IeC {\cyrm }\IeC {\cyre }\IeC {\cyrn }\IeC {\cyrt }\IeC {\cyra }}}{4}}
\newlabel{ris:Fig2_3}{{1.3}{4}}
\newlabel{eq:eq2_1}{{1.1}{4}}
\@writefile{lof}{\contentsline {figure}{\numberline {1.4}{\ignorespaces \IeC {\CYRV }\IeC {\cyrery }\IeC {\cyrh }\IeC {\cyro }\IeC {\cyrd }\IeC {\cyrn }\IeC {\cyra }\IeC {\cyrya } \IeC {\cyrk }\IeC {\cyro }\IeC {\cyro }\IeC {\cyrr }\IeC {\cyrd }\IeC {\cyri }\IeC {\cyrn }\IeC {\cyra }\IeC {\cyrt }\IeC {\cyra } \IeC {\CYRI }\IeC {\CYRI }\IeC {\CYREREV }}}{5}}
\newlabel{ris:fig2_4}{{1.4}{5}}
\@writefile{lof}{\contentsline {figure}{\numberline {1.5}{\ignorespaces \IeC {\CYRA }\IeC {\CYRI }\IeC {\CYRM } \IeC {\cyrp }\IeC {\cyre }\IeC {\cyrr }\IeC {\cyrv }\IeC {\cyro }\IeC {\cyrg }\IeC {\cyro } \IeC {\cyrr }\IeC {\cyro }\IeC {\cyrd }\IeC {\cyra }}}{5}}
\newlabel{ris:fig2_5}{{1.5}{5}}
\@writefile{lof}{\contentsline {figure}{\numberline {1.6}{\ignorespaces \IeC {\CYRT }\IeC {\cyrr }\IeC {\cyre }\IeC {\cyrb }\IeC {\cyru }\IeC {\cyre }\IeC {\cyrm }\IeC {\cyra }\IeC {\cyrya } \IeC {\cyrh }\IeC {\cyra }\IeC {\cyrr }\IeC {\cyra }\IeC {\cyrk }\IeC {\cyrt }\IeC {\cyre }\IeC {\cyrr }\IeC {\cyri }\IeC {\cyrs }\IeC {\cyrt }\IeC {\cyri }\IeC {\cyrk }\IeC {\cyra } \IeC {\cyrf }.\IeC {\cyrz }.}}{5}}
\newlabel{ris:fig2_6}{{1.6}{5}}
\@writefile{lof}{\contentsline {figure}{\numberline {1.7}{\ignorespaces \IeC {\CYRR }\IeC {\cyre }\IeC {\cyra }\IeC {\cyrl }\IeC {\cyri }\IeC {\cyrz }\IeC {\cyra }\IeC {\cyrc }\IeC {\cyri }\IeC {\cyrya } \IeC {\cyrf }\IeC {\cyro }\IeC {\cyrr }\IeC {\cyrm }\IeC {\cyri }\IeC {\cyrr }\IeC {\cyru }\IeC {\cyryu }\IeC {\cyrshch }\IeC {\cyre }\IeC {\cyrg }\IeC {\cyro } \IeC {\cyrz }\IeC {\cyrv }\IeC {\cyre }\IeC {\cyrn }\IeC {\cyra }}}{6}}
\newlabel{ris:fig2_7}{{1.7}{6}}
\@writefile{lof}{\contentsline {figure}{\numberline {1.8}{\ignorespaces \IeC {\CYRK }\IeC {\cyru }\IeC {\cyrs }\IeC {\cyro }\IeC {\cyrch }\IeC {\cyrn }\IeC {\cyro }-\IeC {\cyrl }\IeC {\cyri }\IeC {\cyrn }\IeC {\cyre }\IeC {\cyrishrt }\IeC {\cyrn }\IeC {\cyra }\IeC {\cyrya } \IeC {\cyrf }\IeC {\cyru }\IeC {\cyrn }\IeC {\cyrk }\IeC {\cyrc }\IeC {\cyri }\IeC {\cyrya }}}{6}}
\newlabel{ris:fig2_8}{{1.8}{6}}
\@writefile{lof}{\contentsline {figure}{\numberline {1.9}{\ignorespaces \IeC {\CYRR }\IeC {\cyre }\IeC {\cyra }\IeC {\cyrl }\IeC {\cyri }\IeC {\cyrz }\IeC {\cyra }\IeC {\cyrc }\IeC {\cyri }\IeC {\cyrya } \IeC {\cyrk }\IeC {\cyru }\IeC {\cyrs }\IeC {\cyro }\IeC {\cyrch }\IeC {\cyrn }\IeC {\cyro }-\IeC {\cyrl }\IeC {\cyri }\IeC {\cyrn }\IeC {\cyre }\IeC {\cyrishrt }\IeC {\cyrn }\IeC {\cyro }\IeC {\cyrishrt } \IeC {\cyrf }\IeC {\cyru }\IeC {\cyrn }\IeC {\cyrk }\IeC {\cyrc }\IeC {\cyri }\IeC {\cyri }}}{7}}
\newlabel{ris:fig2_9}{{1.9}{7}}
\@writefile{lof}{\contentsline {figure}{\numberline {1.10}{\ignorespaces \IeC {\CYRS }\IeC {\cyrh }\IeC {\cyre }\IeC {\cyrm }\IeC {\cyra } \IeC {\cyri }\IeC {\cyrs }\IeC {\cyrh }\IeC {\cyro }\IeC {\cyrd }\IeC {\cyrn }\IeC {\cyro }\IeC {\cyrg }\IeC {\cyro } \IeC {\cyrf }\IeC {\cyrr }\IeC {\cyra }\IeC {\cyrg }\IeC {\cyrm }\IeC {\cyre }\IeC {\cyrn }\IeC {\cyrt }\IeC {\cyra } \IeC {\cyrs } \IeC {\CYRI }.\IeC {\CYREREV }.}}{7}}
\newlabel{ris:fig3_0}{{1.10}{7}}
\@writefile{lof}{\contentsline {figure}{\numberline {1.11}{\ignorespaces \IeC {\CYRS }\IeC {\cyri }\IeC {\cyrs }\IeC {\cyrt }\IeC {\cyre }\IeC {\cyrm }\IeC {\cyra } \IeC {\cyrs } \IeC {\cyrp }\IeC {\cyrr }\IeC {\cyri }\IeC {\cyrv }\IeC {\cyre }\IeC {\cyrd }\IeC {\cyre }\IeC {\cyrn }\IeC {\cyrn }\IeC {\cyro }\IeC {\cyrishrt } \IeC {\cyrn }\IeC {\cyre }\IeC {\cyrp }\IeC {\cyrr }\IeC {\cyre }\IeC {\cyrr }\IeC {\cyrery }\IeC {\cyrv }\IeC {\cyrn }\IeC {\cyro }\IeC {\cyrishrt } \IeC {\cyrch }\IeC {\cyra }\IeC {\cyrs }\IeC {\cyrt }\IeC {\cyrsftsn }\IeC {\cyryu }.}}{7}}
\newlabel{ris:fig3_1}{{1.11}{7}}
\@writefile{lof}{\contentsline {figure}{\numberline {1.12}{\ignorespaces \IeC {\CYRS }\IeC {\cyri }\IeC {\cyrs }\IeC {\cyrt }\IeC {\cyre }\IeC {\cyrm }\IeC {\cyra } \IeC {\cyrs } \IeC {\CYRI }.\IeC {\CYREREV }. \IeC {\cyri } \IeC {\cyro }\IeC {\cyrb }\IeC {\cyrr }\IeC {\cyra }\IeC {\cyrt }\IeC {\cyrn }\IeC {\cyro }\IeC {\cyrishrt } \IeC {\cyrs }\IeC {\cyrv }\IeC {\cyrya }\IeC {\cyrz }\IeC {\cyrsftsn }\IeC {\cyryu }}}{8}}
\newlabel{ris:fig3_2}{{1.12}{8}}
\@writefile{lof}{\contentsline {figure}{\numberline {1.13}{\ignorespaces \IeC {\CYRS }\IeC {\cyri }\IeC {\cyrs }\IeC {\cyrt }\IeC {\cyre }\IeC {\cyrm }\IeC {\cyra } \IeC {\cyrs } \IeC {\cyrd }\IeC {\cyri }\IeC {\cyrs }\IeC {\cyrk }\IeC {\cyrr }\IeC {\cyre }\IeC {\cyrt }\IeC {\cyri }\IeC {\cyrz }\IeC {\cyra }\IeC {\cyrc }\IeC {\cyri }\IeC {\cyre }\IeC {\cyrishrt } \IeC {\cyrp }\IeC {\cyro } $y(t)$}}{8}}
\newlabel{ris:fig3_3}{{1.13}{8}}
\@writefile{toc}{\contentsline {section}{\numberline {1.3}\IeC {\CYRO }\IeC {\cyrs }\IeC {\cyro }\IeC {\cyrb }\IeC {\cyre }\IeC {\cyrn }\IeC {\cyrn }\IeC {\cyro }\IeC {\cyrs }\IeC {\cyrt }\IeC {\cyri } \IeC {\cyrs }\IeC {\cyrt }\IeC {\cyrr }\IeC {\cyru }\IeC {\cyrk }\IeC {\cyrt }\IeC {\cyru }\IeC {\cyrr }\IeC {\cyrn }\IeC {\cyrery }\IeC {\cyrh } \IeC {\cyrp }\IeC {\cyrr }\IeC {\cyre }\IeC {\cyro }\IeC {\cyrb }\IeC {\cyrr }\IeC {\cyra }\IeC {\cyrz }\IeC {\cyro }\IeC {\cyrv }\IeC {\cyra }\IeC {\cyrn }\IeC {\cyri }\IeC {\cyrishrt } \IeC {\cyrv } \IeC {\cyri }\IeC {\cyrm }\IeC {\cyrp }\IeC {\cyru }\IeC {\cyrl }\IeC {\cyrsftsn }\IeC {\cyrs }\IeC {\cyrn }\IeC {\cyrery }\IeC {\cyrh } \IeC {\cyrs }\IeC {\cyri }\IeC {\cyrs }\IeC {\cyrt }\IeC {\cyre }\IeC {\cyrm }\IeC {\cyra }\IeC {\cyrh }}{8}}
\@writefile{toc}{\contentsline {section}{\numberline {1.4}\IeC {\CYRU }\IeC {\cyrr }\IeC {\cyra }\IeC {\cyrv }\IeC {\cyrn }\IeC {\cyre }\IeC {\cyrn }\IeC {\cyri }\IeC {\cyrya } \IeC {\cyrd }\IeC {\cyrv }\IeC {\cyri }\IeC {\cyrzh }\IeC {\cyre }\IeC {\cyrn }\IeC {\cyri }\IeC {\cyrya } \IeC {\cyri }\IeC {\cyrm }\IeC {\cyrp }\IeC {\cyru }\IeC {\cyrl }\IeC {\cyrsftsn }\IeC {\cyrs }\IeC {\cyrn }\IeC {\cyrery }\IeC {\cyrh } \IeC {\cyrs }\IeC {\cyri }\IeC {\cyrs }\IeC {\cyrt }\IeC {\cyre }\IeC {\cyrm } \IeC {\cyra }\IeC {\cyrv }\IeC {\cyrt }\IeC {\cyro }\IeC {\cyrm }\IeC {\cyra }\IeC {\cyrt }\IeC {\cyri }\IeC {\cyrch }\IeC {\cyre }\IeC {\cyrs }\IeC {\cyrk }\IeC {\cyro }\IeC {\cyrg }\IeC {\cyro } \IeC {\cyru }\IeC {\cyrp }\IeC {\cyrr }\IeC {\cyra }\IeC {\cyrv }\IeC {\cyrl }\IeC {\cyre }\IeC {\cyrn }\IeC {\cyri }\IeC {\cyrya }}{12}}
\@writefile{lof}{\contentsline {figure}{\numberline {1.14}{\ignorespaces \IeC {\CYRP }\IeC {\cyrr }\IeC {\cyri }\IeC {\cyrm }\IeC {\cyre }\IeC {\cyrr } \IeC {\cyrs }\IeC {\cyri }\IeC {\cyrs }\IeC {\cyrt }\IeC {\cyre }\IeC {\cyrm }\IeC {\cyrery } \IeC {\cyrs } \IeC {\cyrd }\IeC {\cyri }\IeC {\cyrs }\IeC {\cyrk }\IeC {\cyrr }\IeC {\cyre }\IeC {\cyrt }\IeC {\cyri }\IeC {\cyrz }\IeC {\cyra }\IeC {\cyrc }\IeC {\cyri }\IeC {\cyre }\IeC {\cyrishrt } \IeC {\cyrp }\IeC {\cyro } $y(t)$}}{12}}
\newlabel{ris:fig3_4}{{1.14}{12}}
\@writefile{lof}{\contentsline {figure}{\numberline {1.15}{\ignorespaces \IeC {\CYRP }\IeC {\cyro }\IeC {\cyrs }\IeC {\cyrl }\IeC {\cyre }\IeC {\cyrd }\IeC {\cyro }\IeC {\cyrv }\IeC {\cyra }\IeC {\cyrt }\IeC {\cyre }\IeC {\cyrl }\IeC {\cyrsftsn }\IeC {\cyrn }\IeC {\cyro }\IeC {\cyrs }\IeC {\cyrt }\IeC {\cyrsftsn } $\delta $-\IeC {\cyrf }\IeC {\cyru }\IeC {\cyrn }\IeC {\cyrk }\IeC {\cyrc }\IeC {\cyri }\IeC {\cyrishrt }}}{12}}
\newlabel{ris:fig3_5}{{1.15}{12}}
\@writefile{lof}{\contentsline {figure}{\numberline {1.16}{\ignorespaces \IeC {\CYRV }\IeC {\cyre }\IeC {\cyrs }\IeC {\cyro }\IeC {\cyrv }\IeC {\cyra }\IeC {\cyrya } \IeC {\cyrf }\IeC {\cyru }\IeC {\cyrn }\IeC {\cyrk }\IeC {\cyrc }\IeC {\cyri }\IeC {\cyrya } - \IeC {\cyrk }\IeC {\cyra }\IeC {\cyrk } \IeC {\cyrr }\IeC {\cyre }\IeC {\cyra }\IeC {\cyrk }\IeC {\cyrc }\IeC {\cyri }\IeC {\cyrya } \IeC {\cyrn }\IeC {\cyra } $\delta $-\IeC {\cyrf }\IeC {\cyru }\IeC {\cyrn }\IeC {\cyrk }\IeC {\cyrc }\IeC {\cyri }\IeC {\cyryu }}}{13}}
\newlabel{ris:fig3_6}{{1.16}{13}}
\@writefile{toc}{\contentsline {subsection}{\numberline {1.4.1}\IeC {\CYRR }\IeC {\cyre }\IeC {\cyrsh }\IeC {\cyryo }\IeC {\cyrt }\IeC {\cyrch }\IeC {\cyra }\IeC {\cyrt }\IeC {\cyrery }\IeC {\cyre } \IeC {\cyrf }\IeC {\cyru }\IeC {\cyrn }\IeC {\cyrk }\IeC {\cyrc }\IeC {\cyri }\IeC {\cyri }}{15}}
\@writefile{lof}{\contentsline {figure}{\numberline {1.17}{\ignorespaces \IeC {\CYRR }\IeC {\cyre }\IeC {\cyrsh }\IeC {\cyre }\IeC {\cyrt }\IeC {\cyrch }\IeC {\cyra }\IeC {\cyrt }\IeC {\cyra }\IeC {\cyrya } \IeC {\cyrf }\IeC {\cyru }\IeC {\cyrn }\IeC {\cyrk }\IeC {\cyrc }\IeC {\cyri }\IeC {\cyrya }}}{15}}
\newlabel{ris:fig3_7}{{1.17}{15}}
\@writefile{toc}{\contentsline {subsection}{\numberline {1.4.2}\IeC {\CYRU }\IeC {\cyrr }\IeC {\cyra }\IeC {\cyrv }\IeC {\cyrn }\IeC {\cyre }\IeC {\cyrn }\IeC {\cyri }\IeC {\cyrya } \IeC {\cyrv } \IeC {\cyrk }\IeC {\cyro }\IeC {\cyrn }\IeC {\cyre }\IeC {\cyrch }\IeC {\cyrn }\IeC {\cyrery }\IeC {\cyrh } \IeC {\cyrr }\IeC {\cyra }\IeC {\cyrz }\IeC {\cyrn }\IeC {\cyro }\IeC {\cyrs }\IeC {\cyrt }\IeC {\cyrya }\IeC {\cyrh } (\IeC {\cyrr }\IeC {\cyra }\IeC {\cyrz }\IeC {\cyrn }\IeC {\cyro }\IeC {\cyrs }\IeC {\cyrt }\IeC {\cyrn }\IeC {\cyrery }\IeC {\cyre } \IeC {\cyru }\IeC {\cyrr }\IeC {\cyra }\IeC {\cyrv }\IeC {\cyrn }\IeC {\cyre }\IeC {\cyrn }\IeC {\cyri }\IeC {\cyrya }), \IeC {\cyrm }\IeC {\cyre }\IeC {\cyrt }\IeC {\cyro }\IeC {\cyrd }\IeC {\cyrery } \IeC {\cyri }\IeC {\cyrh } \IeC {\cyrr }\IeC {\cyre }\IeC {\cyrsh }\IeC {\cyre }\IeC {\cyrn }\IeC {\cyri }\IeC {\cyrya }}{16}}
\newlabel{1_4_01difference equation}{{1.20}{16}}
\newlabel{1_4_02Differential equation}{{1.21}{16}}
\@writefile{toc}{\contentsline {subsection}{\numberline {1.4.3}\IeC {\CYRA }\IeC {\cyrl }\IeC {\cyrg }\IeC {\cyro }\IeC {\cyrr }\IeC {\cyri }\IeC {\cyrt }\IeC {\cyrm }\IeC {\cyri }\IeC {\cyrch }\IeC {\cyre }\IeC {\cyrs }\IeC {\cyrk }\IeC {\cyri }\IeC {\cyre } \IeC {\cyrs }\IeC {\cyrh }\IeC {\cyre }\IeC {\cyrm }\IeC {\cyrery }: \IeC {\cyrz }\IeC {\cyra }\IeC {\cyrp }\IeC {\cyri }\IeC {\cyrs }\IeC {\cyrsftsn } \IeC {\cyrr }\IeC {\cyra }\IeC {\cyrz }\IeC {\cyrn }\IeC {\cyro }\IeC {\cyrs }\IeC {\cyrt }\IeC {\cyrn }\IeC {\cyrery }\IeC {\cyrh } \IeC {\cyru }\IeC {\cyrr }\IeC {\cyra }\IeC {\cyrv }\IeC {\cyrn }\IeC {\cyre }\IeC {\cyrn }\IeC {\cyri }\IeC {\cyrishrt } \IeC {\cyrv } \IeC {\cyrv }\IeC {\cyre }\IeC {\cyrk }\IeC {\cyrt }\IeC {\cyro }\IeC {\cyrr }\IeC {\cyrn }\IeC {\cyro }-\IeC {\cyrm }\IeC {\cyra }\IeC {\cyrt }\IeC {\cyrr }\IeC {\cyri }\IeC {\cyrch }\IeC {\cyrn }\IeC {\cyro }\IeC {\cyrishrt } \IeC {\cyrf }\IeC {\cyro }\IeC {\cyrr }\IeC {\cyrm }\IeC {\cyre }.}{17}}
\@writefile{toc}{\contentsline {section}{\numberline {1.5}\IeC {\CYRO }\IeC {\cyrp }\IeC {\cyre }\IeC {\cyrr }\IeC {\cyra }\IeC {\cyrc }\IeC {\cyri }\IeC {\cyro }\IeC {\cyrn }\IeC {\cyrn }\IeC {\cyrery }\IeC {\cyre } \IeC {\cyrm }\IeC {\cyre }\IeC {\cyrt }\IeC {\cyro }\IeC {\cyrd }\IeC {\cyrery } \IeC {\cyrv } \IeC {\cyrt }\IeC {\cyre }\IeC {\cyro }\IeC {\cyrr }\IeC {\cyri }\IeC {\cyri } \IeC {\cyri }\IeC {\cyrm }\IeC {\cyrp }\IeC {\cyru }\IeC {\cyrl }\IeC {\cyrsftsn }\IeC {\cyrs }\IeC {\cyrn }\IeC {\cyrery }\IeC {\cyrh } \IeC {\cyrs }\IeC {\cyri }\IeC {\cyrs }\IeC {\cyrt }\IeC {\cyre }\IeC {\cyrm }}{19}}
\@writefile{toc}{\contentsline {subsection}{\numberline {1.5.1}\IeC {\CYRD }\IeC {\cyri }\IeC {\cyrs }\IeC {\cyrk }\IeC {\cyrr }\IeC {\cyre }\IeC {\cyrt }\IeC {\cyrn }\IeC {\cyro }\IeC {\cyre } \IeC {\cyrp }\IeC {\cyrr }\IeC {\cyre }\IeC {\cyro }\IeC {\cyrb }\IeC {\cyrr }\IeC {\cyra }\IeC {\cyrz }\IeC {\cyro }\IeC {\cyrv }\IeC {\cyra }\IeC {\cyrn }\IeC {\cyri }\IeC {\cyre } \IeC {\CYRL }\IeC {\cyra }\IeC {\cyrp }\IeC {\cyrl }\IeC {\cyra }\IeC {\cyrs }\IeC {\cyra }}{19}}
\@writefile{toc}{\contentsline {subsection}{\numberline {1.5.2}\IeC {\CYRM }\IeC {\cyro }\IeC {\cyrd }\IeC {\cyri }\IeC {\cyrf }\IeC {\cyri }\IeC {\cyrc }\IeC {\cyri }\IeC {\cyrr }\IeC {\cyro }\IeC {\cyrv }\IeC {\cyra }\IeC {\cyrn }\IeC {\cyrn }\IeC {\cyro }\IeC {\cyre } z-\IeC {\cyrp }\IeC {\cyrr }\IeC {\cyre }\IeC {\cyro }\IeC {\cyrb }\IeC {\cyrr }\IeC {\cyra }\IeC {\cyrz }\IeC {\cyro }\IeC {\cyrv }\IeC {\cyra }\IeC {\cyrn }\IeC {\cyri }\IeC {\cyre }}{21}}
\@writefile{lof}{\contentsline {figure}{\numberline {1.18}{\ignorespaces }}{21}}
\newlabel{ris:Fig5_4}{{1.18}{21}}
\@writefile{toc}{\contentsline {subsection}{\numberline {1.5.3}\IeC {\CYRO }\IeC {\cyrs }\IeC {\cyrn }\IeC {\cyro }\IeC {\cyrv }\IeC {\cyrn }\IeC {\cyrery }\IeC {\cyre } \IeC {\cyrs }\IeC {\cyrv }\IeC {\cyro }\IeC {\cyrishrt }\IeC {\cyrs }\IeC {\cyrt }\IeC {\cyrv }\IeC {\cyra } \IeC {\cyrd }\IeC {\cyri }\IeC {\cyrs }\IeC {\cyrk }\IeC {\cyrr }\IeC {\cyre }\IeC {\cyrt }\IeC {\cyrn }\IeC {\cyro }\IeC {\cyrg }\IeC {\cyro } \IeC {\cyrp }\IeC {\cyrr }\IeC {\cyre }\IeC {\cyro }\IeC {\cyrb }\IeC {\cyrr }\IeC {\cyra }\IeC {\cyrz }\IeC {\cyro }\IeC {\cyrv }\IeC {\cyra }\IeC {\cyrn }\IeC {\cyri }\IeC {\cyrya } \IeC {\CYRL }\IeC {\cyra }\IeC {\cyrp }\IeC {\cyrl }\IeC {\cyra }\IeC {\cyrs }\IeC {\cyra } \IeC {\cyri } z-\IeC {\cyrp }\IeC {\cyrr }\IeC {\cyre }\IeC {\cyro }\IeC {\cyrb }\IeC {\cyrr }\IeC {\cyra }\IeC {\cyrz }\IeC {\cyro }\IeC {\cyrv }\IeC {\cyra }\IeC {\cyrn }\IeC {\cyri }\IeC {\cyrya }}{22}}
\@writefile{toc}{\contentsline {subsection}{\numberline {1.5.4}\IeC {\CYRP }\IeC {\cyre }\IeC {\cyrr }\IeC {\cyre }\IeC {\cyrd }\IeC {\cyra }\IeC {\cyrt }\IeC {\cyro }\IeC {\cyrch }\IeC {\cyrn }\IeC {\cyra }\IeC {\cyrya } \IeC {\cyrf }\IeC {\cyru }\IeC {\cyrn }\IeC {\cyrk }\IeC {\cyrc }\IeC {\cyri }\IeC {\cyrya } \IeC {\cyri }\IeC {\cyrm }\IeC {\cyrp }\IeC {\cyru }\IeC {\cyrl }\IeC {\cyrsftsn }\IeC {\cyrs }\IeC {\cyrn }\IeC {\cyro }\IeC {\cyrishrt } \IeC {\cyrs }\IeC {\cyri }\IeC {\cyrs }\IeC {\cyrt }\IeC {\cyre }\IeC {\cyrm }\IeC {\cyrery } (\IeC {\CYRD }\IeC {\cyri }\IeC {\cyrs }\IeC {\cyrk }\IeC {\cyrr }\IeC {\cyre }\IeC {\cyrt }\IeC {\cyrn }\IeC {\cyra }\IeC {\cyrya } \IeC {\cyrp }\IeC {\cyre }\IeC {\cyrr }\IeC {\cyre }\IeC {\cyrd }\IeC {\cyra }\IeC {\cyrt }\IeC {\cyro }\IeC {\cyrch }\IeC {\cyrn }\IeC {\cyra }\IeC {\cyrya } \IeC {\cyrf }\IeC {\cyru }\IeC {\cyrn }\IeC {\cyrk }\IeC {\cyrc }\IeC {\cyri }\IeC {\cyrya })}{24}}
\@writefile{lof}{\contentsline {figure}{\numberline {1.19}{\ignorespaces }}{24}}
\newlabel{ris:Fig5_7}{{1.19}{24}}
\@writefile{toc}{\contentsline {subsubsection}{\numberline {1.5.4.1}\IeC {\CYRS }\IeC {\cyrv }\IeC {\cyrya }\IeC {\cyrz }\IeC {\cyrsftsn } \IeC {\cyrm }\IeC {\cyre }\IeC {\cyrzh }\IeC {\cyrd }\IeC {\cyru } \IeC {\cyrp }\IeC {\cyre }\IeC {\cyrr }\IeC {\cyre }\IeC {\cyrd }\IeC {\cyra }\IeC {\cyrt }\IeC {\cyro }\IeC {\cyrch }\IeC {\cyrn }\IeC {\cyro }\IeC {\cyrishrt } \IeC {\cyrf }\IeC {\cyru }\IeC {\cyrn }\IeC {\cyrk }\IeC {\cyrc }\IeC {\cyri }\IeC {\cyre }\IeC {\cyrishrt } \IeC {\cyrp }\IeC {\cyrr }\IeC {\cyri }\IeC {\cyrv }\IeC {\cyre }\IeC {\cyrd }\IeC {\cyre }\IeC {\cyrn }\IeC {\cyrn }\IeC {\cyro }\IeC {\cyrishrt } \IeC {\cyrn }\IeC {\cyre }\IeC {\cyrp }\IeC {\cyrr }\IeC {\cyre }\IeC {\cyrr }\IeC {\cyrery }\IeC {\cyrv }\IeC {\cyrn }\IeC {\cyro }\IeC {\cyrishrt } \IeC {\cyrch }\IeC {\cyra }\IeC {\cyrs }\IeC {\cyrt }\IeC {\cyri }, \IeC {\cyrv }\IeC {\cyre }\IeC {\cyrs }\IeC {\cyro }\IeC {\cyrv }\IeC {\cyro }\IeC {\cyrishrt } \IeC {\cyrn }\IeC {\cyre }\IeC {\cyrp }\IeC {\cyrr }\IeC {\cyre }\IeC {\cyrr }\IeC {\cyrery }\IeC {\cyrv }\IeC {\cyrn }\IeC {\cyro }\IeC {\cyrishrt } \IeC {\cyri } \IeC {\cyrr }\IeC {\cyre }\IeC {\cyrsh }\IeC {\cyre }\IeC {\cyrt }\IeC {\cyrch }\IeC {\cyra }\IeC {\cyrt }\IeC {\cyrery }\IeC {\cyrm }\IeC {\cyri } \IeC {\cyrf }\IeC {\cyru }\IeC {\cyrn }\IeC {\cyrk }\IeC {\cyrc }\IeC {\cyri }\IeC {\cyrya }\IeC {\cyrm }\IeC {\cyri } $W(p),w(t),w[i],W(z)$}{25}}
\@writefile{toc}{\contentsline {subsubsection}{\numberline {1.5.4.2}\IeC {\CYRO }\IeC {\cyrp }\IeC {\cyrr }\IeC {\cyre }\IeC {\cyrd }\IeC {\cyre }\IeC {\cyrl }\IeC {\cyre }\IeC {\cyrn }\IeC {\cyri }\IeC {\cyre } \IeC {\cyrp }\IeC {\cyre }\IeC {\cyrr }\IeC {\cyre }\IeC {\cyrd }\IeC {\cyra }\IeC {\cyrt }\IeC {\cyro }\IeC {\cyrch }\IeC {\cyrn }\IeC {\cyro }\IeC {\cyrishrt } \IeC {\cyrf }\IeC {\cyru }\IeC {\cyrn }\IeC {\cyrk }\IeC {\cyrc }\IeC {\cyri }\IeC {\cyri } W(z) \IeC {\cyrch }\IeC {\cyre }\IeC {\cyrr }\IeC {\cyre }\IeC {\cyrz } \IeC {\cyrp }\IeC {\cyre }\IeC {\cyrr }\IeC {\cyre }\IeC {\cyrd }\IeC {\cyra }\IeC {\cyrt }\IeC {\cyro }\IeC {\cyrch }\IeC {\cyrn }\IeC {\cyru }\IeC {\cyryu } \IeC {\cyrf }\IeC {\cyru }\IeC {\cyrn }\IeC {\cyrk }\IeC {\cyrc }\IeC {\cyri }\IeC {\cyryu } \IeC {\cyrn }\IeC {\cyre }\IeC {\cyrp }\IeC {\cyrr }\IeC {\cyre }\IeC {\cyrr }\IeC {\cyrery }\IeC {\cyrv }\IeC {\cyrn }\IeC {\cyro }\IeC {\cyrishrt } \IeC {\cyrch }\IeC {\cyra }\IeC {\cyrs }\IeC {\cyrt }\IeC {\cyri }}{25}}
\@writefile{toc}{\contentsline {section}{\numberline {1.6}\IeC {\CYRCH }\IeC {\cyra }\IeC {\cyrs }\IeC {\cyrt }\IeC {\cyro }\IeC {\cyrt }\IeC {\cyrn }\IeC {\cyrery }\IeC {\cyre } \IeC {\cyrh }\IeC {\cyra }\IeC {\cyrr }\IeC {\cyra }\IeC {\cyrk }\IeC {\cyrt }\IeC {\cyre }\IeC {\cyrr }\IeC {\cyri }\IeC {\cyrs }\IeC {\cyrt }\IeC {\cyri }\IeC {\cyrk }\IeC {\cyri } \IeC {\cyri }\IeC {\cyrm }\IeC {\cyrp }\IeC {\cyru }\IeC {\cyrl }\IeC {\cyrsftsn }\IeC {\cyrs }\IeC {\cyrn }\IeC {\cyrery }\IeC {\cyrh } \IeC {\cyrs }\IeC {\cyri }\IeC {\cyrs }\IeC {\cyrt }\IeC {\cyre }\IeC {\cyrm }}{26}}
\@writefile{toc}{\contentsline {subsection}{\numberline {1.6.1}\IeC {\CYRP }\IeC {\cyro }\IeC {\cyrn }\IeC {\cyrya }\IeC {\cyrt }\IeC {\cyri }\IeC {\cyre } \IeC {\cyro }\IeC {\cyrb } \IeC {\cyra }\IeC {\cyrm }\IeC {\cyrp }\IeC {\cyrl }\IeC {\cyri }\IeC {\cyrt }\IeC {\cyru }\IeC {\cyrd }\IeC {\cyrn }\IeC {\cyro }-\IeC {\cyrf }\IeC {\cyra }\IeC {\cyrz }\IeC {\cyro }\IeC {\cyrv }\IeC {\cyrery }\IeC {\cyrh } \IeC {\cyrh }\IeC {\cyra }\IeC {\cyrr }\IeC {\cyra }\IeC {\cyrk }\IeC {\cyrt }\IeC {\cyre }\IeC {\cyrr }\IeC {\cyri }\IeC {\cyrs }\IeC {\cyrt }\IeC {\cyri }\IeC {\cyrk }\IeC {\cyra }\IeC {\cyrh } \IeC {\cyri }\IeC {\cyrm }\IeC {\cyrp }\IeC {\cyru }\IeC {\cyrl }\IeC {\cyrsftsn }\IeC {\cyrs }\IeC {\cyrn }\IeC {\cyrery }\IeC {\cyrh } \IeC {\cyrs }\IeC {\cyri }\IeC {\cyrs }\IeC {\cyrt }\IeC {\cyre }\IeC {\cyrm } (\IeC {\cyrg }\IeC {\cyro }\IeC {\cyrd }\IeC {\cyro }\IeC {\cyrg }\IeC {\cyrr }\IeC {\cyra }\IeC {\cyrf }\IeC {\cyrery } z-\IeC {\cyrp }\IeC {\cyrr }\IeC {\cyre }\IeC {\cyro }\IeC {\cyrb }\IeC {\cyrr }\IeC {\cyra }\IeC {\cyrz }\IeC {\cyro }\IeC {\cyrv }\IeC {\cyra }\IeC {\cyrn }\IeC {\cyri }\IeC {\cyrishrt })}{26}}
\@writefile{toc}{\contentsline {subsection}{\numberline {1.6.2}\IeC {\CYRO }\IeC {\cyrs }\IeC {\cyrn }\IeC {\cyro }\IeC {\cyrv }\IeC {\cyrn }\IeC {\cyrery }\IeC {\cyre } \IeC {\cyro }\IeC {\cyrs }\IeC {\cyro }\IeC {\cyrb }\IeC {\cyre }\IeC {\cyrn }\IeC {\cyrn }\IeC {\cyro }\IeC {\cyrs }\IeC {\cyrt }\IeC {\cyri } \IeC {\cyrch }\IeC {\cyra }\IeC {\cyrs }\IeC {\cyrt }\IeC {\cyro }\IeC {\cyrt }\IeC {\cyrn }\IeC {\cyrery }\IeC {\cyrh } \IeC {\cyrf }\IeC {\cyru }\IeC {\cyrn }\IeC {\cyrk }\IeC {\cyrc }\IeC {\cyri }\IeC {\cyrishrt } \IeC {\cyri }\IeC {\cyrm }\IeC {\cyrp }\IeC {\cyru }\IeC {\cyrl }\IeC {\cyrsftsn }\IeC {\cyrs }\IeC {\cyrn }\IeC {\cyrery }\IeC {\cyrh } \IeC {\cyrs }\IeC {\cyri }\IeC {\cyrs }\IeC {\cyrt }\IeC {\cyre }\IeC {\cyrm }}{30}}
\@writefile{toc}{\contentsline {subsection}{\numberline {1.6.3}\IeC {\CYRR }\IeC {\cyra }\IeC {\cyrs }\IeC {\cyrch }\IeC {\cyre }\IeC {\cyrt } \IeC {\cyrch }\IeC {\cyra }\IeC {\cyrs }\IeC {\cyrt }\IeC {\cyro }\IeC {\cyrt }\IeC {\cyrn }\IeC {\cyrery }\IeC {\cyrh } \IeC {\cyrh }\IeC {\cyra }\IeC {\cyrr }\IeC {\cyra }\IeC {\cyrk }\IeC {\cyrt }\IeC {\cyre }\IeC {\cyrr }\IeC {\cyri }\IeC {\cyrs }\IeC {\cyrt }\IeC {\cyri }\IeC {\cyrk } \IeC {\cyri }\IeC {\cyrm }\IeC {\cyrp }\IeC {\cyru }\IeC {\cyrl }\IeC {\cyrsftsn }\IeC {\cyrs }\IeC {\cyrn }\IeC {\cyro }\IeC {\cyrishrt } \IeC {\cyrs }\IeC {\cyri }\IeC {\cyrs }\IeC {\cyrt }\IeC {\cyre }\IeC {\cyrm }\IeC {\cyrery } $ {W}*\left ({j}\omega \right ) $ \IeC {\cyrn }\IeC {\cyra } \IeC {\cyro }\IeC {\cyrs }\IeC {\cyrn }\IeC {\cyro }\IeC {\cyrv }\IeC {\cyra }\IeC {\cyrn }\IeC {\cyri }\IeC {\cyri } \IeC {\cyrch }\IeC {\cyra }\IeC {\cyrs }\IeC {\cyrt }\IeC {\cyro }\IeC {\cyrt }\IeC {\cyrn }\IeC {\cyrery }\IeC {\cyrh } \IeC {\cyrh }\IeC {\cyra }\IeC {\cyrr }\IeC {\cyra }\IeC {\cyrk }\IeC {\cyrt }\IeC {\cyre }\IeC {\cyrr }\IeC {\cyri }\IeC {\cyrs }\IeC {\cyrt }\IeC {\cyri }\IeC {\cyrk } \IeC {\cyrp }\IeC {\cyrr }\IeC {\cyri }\IeC {\cyrv }\IeC {\cyre }\IeC {\cyrd }\IeC {\cyre }\IeC {\cyrn }\IeC {\cyrn }\IeC {\cyro }\IeC {\cyrishrt } \IeC {\cyrn }\IeC {\cyre }\IeC {\cyrp }\IeC {\cyrr }\IeC {\cyre }\IeC {\cyrr }\IeC {\cyrery }\IeC {\cyrv }\IeC {\cyrn }\IeC {\cyro }\IeC {\cyrishrt } \IeC {\cyrch }\IeC {\cyra }\IeC {\cyrs }\IeC {\cyrt }\IeC {\cyri } $ {W} \left ({j}\omega \right ) $}{31}}
\@writefile{toc}{\contentsline {subsection}{\numberline {1.6.4}\IeC {\CYRI }\IeC {\cyrs }\IeC {\cyrs }\IeC {\cyrl }\IeC {\cyre }\IeC {\cyrd }\IeC {\cyro }\IeC {\cyrv }\IeC {\cyra }\IeC {\cyrn }\IeC {\cyri }\IeC {\cyre } \IeC {\cyru }\IeC {\cyrs }\IeC {\cyrt }\IeC {\cyro }\IeC {\cyrishrt }\IeC {\cyrch }\IeC {\cyri }\IeC {\cyrv }\IeC {\cyro }\IeC {\cyrs }\IeC {\cyrt }\IeC {\cyri } \IeC {\cyri }\IeC {\cyrm }\IeC {\cyrp }\IeC {\cyru }\IeC {\cyrl }\IeC {\cyrsftsn }\IeC {\cyrs }\IeC {\cyrn }\IeC {\cyrery }\IeC {\cyrh } \IeC {\cyrs }\IeC {\cyri }\IeC {\cyrs }\IeC {\cyrt }\IeC {\cyre }\IeC {\cyrm }}{34}}
\@writefile{toc}{\contentsline {subsubsection}{\numberline {1.6.4.1}\IeC {\CYRH }\IeC {\cyra }\IeC {\cyrr }\IeC {\cyra }\IeC {\cyrk }\IeC {\cyrt }\IeC {\cyre }\IeC {\cyrr }\IeC {\cyri }\IeC {\cyrs }\IeC {\cyrt }\IeC {\cyri }\IeC {\cyrch }\IeC {\cyre }\IeC {\cyrs }\IeC {\cyrk }\IeC {\cyri }\IeC {\cyrishrt } \IeC {\cyrp }\IeC {\cyro }\IeC {\cyrl }\IeC {\cyri }\IeC {\cyrn }\IeC {\cyro }\IeC {\cyrm } \IeC {\cyri }\IeC {\cyrm }\IeC {\cyrp }\IeC {\cyru }\IeC {\cyrl }\IeC {\cyrsftsn }\IeC {\cyrs }\IeC {\cyrn }\IeC {\cyro } \IeC {\cyrs }\IeC {\cyri }\IeC {\cyrs }\IeC {\cyrt }\IeC {\cyre }\IeC {\cyrm }\IeC {\cyrery }. \IeC {\CYRI }\IeC {\cyrs }\IeC {\cyrs }\IeC {\cyrl }\IeC {\cyre }\IeC {\cyrd }\IeC {\cyro }\IeC {\cyrv }\IeC {\cyra }\IeC {\cyrn }\IeC {\cyri }\IeC {\cyre } \IeC {\cyru }\IeC {\cyrs }\IeC {\cyrt }\IeC {\cyro }\IeC {\cyrishrt }\IeC {\cyrch }\IeC {\cyri }\IeC {\cyrv }\IeC {\cyro }\IeC {\cyrs }\IeC {\cyrt }\IeC {\cyri } \IeC {\cyri }\IeC {\cyrm }\IeC {\cyrp }\IeC {\cyru }\IeC {\cyrl }\IeC {\cyrsftsn }\IeC {\cyrs }\IeC {\cyrn }\IeC {\cyrery }\IeC {\cyrh } \IeC {\cyrs }\IeC {\cyri }\IeC {\cyrs }\IeC {\cyrt }\IeC {\cyre }\IeC {\cyrm } \IeC {\cyrp }\IeC {\cyro } \IeC {\cyrk }\IeC {\cyro }\IeC {\cyrr }\IeC {\cyrn }\IeC {\cyrya }\IeC {\cyrm } \IeC {\cyrk }\IeC {\cyra }\IeC {\cyrr }\IeC {\cyra }\IeC {\cyrk }\IeC {\cyrt }\IeC {\cyre }\IeC {\cyrr }\IeC {\cyri }\IeC {\cyrs }\IeC {\cyrt }\IeC {\cyri }\IeC {\cyrch }\IeC {\cyre }\IeC {\cyrs }\IeC {\cyrk }\IeC {\cyro }\IeC {\cyrg }\IeC {\cyro } \IeC {\cyru }\IeC {\cyrr }\IeC {\cyra }\IeC {\cyrv }\IeC {\cyrn }\IeC {\cyre }\IeC {\cyrn }\IeC {\cyri }\IeC {\cyrya }.}{34}}
\newlabel{eqkek:1}{{1.22}{34}}
\newlabel{eqkek:2}{{1.23}{35}}
\newlabel{eqkek:3}{{1.24}{35}}
\@writefile{toc}{\contentsline {subsubsection}{\numberline {1.6.4.2}\IeC {\CYRP }\IeC {\cyro }\IeC {\cyrl }\IeC {\cyru }\IeC {\cyrch }\IeC {\cyre }\IeC {\cyrn }\IeC {\cyri }\IeC {\cyre } \IeC {\cyrh }\IeC {\cyra }\IeC {\cyrr }\IeC {\cyra }\IeC {\cyrk }\IeC {\cyrt }\IeC {\cyre }\IeC {\cyrr }\IeC {\cyri }\IeC {\cyrs }\IeC {\cyrt }\IeC {\cyri }\IeC {\cyrch }\IeC {\cyre }\IeC {\cyrs }\IeC {\cyrk }\IeC {\cyro }\IeC {\cyrg }\IeC {\cyro } \IeC {\cyrp }\IeC {\cyro }\IeC {\cyrl }\IeC {\cyri }\IeC {\cyrn }\IeC {\cyro }\IeC {\cyrm }\IeC {\cyra } \IeC {\cyrz }\IeC {\cyra }\IeC {\cyrm }\IeC {\cyrk }\IeC {\cyrn }\IeC {\cyru }\IeC {\cyrt }\IeC {\cyro }\IeC {\cyrishrt } \IeC {\cyrs }\IeC {\cyri }\IeC {\cyrs }\IeC {\cyrt }\IeC {\cyre }\IeC {\cyrm }\IeC {\cyrery }}{36}}
\@writefile{toc}{\contentsline {subsubsection}{\numberline {1.6.4.3}\IeC {\CYRCH }\IeC {\cyra }\IeC {\cyrs }\IeC {\cyrt }\IeC {\cyro }\IeC {\cyrt }\IeC {\cyrn }\IeC {\cyrery }\IeC {\cyrishrt } \IeC {\cyrk }\IeC {\cyrr }\IeC {\cyri }\IeC {\cyrt }\IeC {\cyre }\IeC {\cyrr }\IeC {\cyri }\IeC {\cyrishrt } \IeC {\cyru }\IeC {\cyrs }\IeC {\cyrt }\IeC {\cyro }\IeC {\cyrishrt }\IeC {\cyrch }\IeC {\cyri }\IeC {\cyrv }\IeC {\cyro }\IeC {\cyrs }\IeC {\cyrt }\IeC {\cyri }}{42}}
\@writefile{toc}{\contentsline {subsubsection}{\numberline {1.6.4.4}\IeC {\CYRB }\IeC {\cyri }\IeC {\cyrl }\IeC {\cyri }\IeC {\cyrn }\IeC {\cyre }\IeC {\cyrishrt }\IeC {\cyrn }\IeC {\cyro }\IeC {\cyrishrt } \IeC {\cyrp }\IeC {\cyrr }\IeC {\cyre }\IeC {\cyro }\IeC {\cyrb }\IeC {\cyrr }\IeC {\cyra }\IeC {\cyrz }\IeC {\cyro }\IeC {\cyrv }\IeC {\cyra }\IeC {\cyrn }\IeC {\cyri }\IeC {\cyre }}{45}}
\newlabel{f:1}{{1.25}{45}}
\newlabel{f:2}{{1.26}{46}}
\@writefile{toc}{\contentsline {subsubsection}{\numberline {1.6.4.5}\IeC {\CYRL }\IeC {\cyro }\IeC {\cyrg }\IeC {\cyra }\IeC {\cyrr }\IeC {\cyri }\IeC {\cyrf }\IeC {\cyrm }\IeC {\cyri }\IeC {\cyrch }\IeC {\cyre }\IeC {\cyrs }\IeC {\cyrk }\IeC {\cyri }\IeC {\cyre } \IeC {\cyrch }\IeC {\cyra }\IeC {\cyrs }\IeC {\cyrt }\IeC {\cyro }\IeC {\cyrt }\IeC {\cyrn }\IeC {\cyrery }\IeC {\cyre } \IeC {\cyrh }\IeC {\cyra }\IeC {\cyrr }\IeC {\cyra }\IeC {\cyrk }\IeC {\cyrt }\IeC {\cyre }\IeC {\cyrr }\IeC {\cyri }\IeC {\cyrs }\IeC {\cyrt }\IeC {\cyri }\IeC {\cyrk }\IeC {\cyri } \IeC {\cyri }\IeC {\cyrm }\IeC {\cyrp }\IeC {\cyru }\IeC {\cyrl }\IeC {\cyrsftsn }\IeC {\cyrs }\IeC {\cyrn }\IeC {\cyrery }\IeC {\cyrh } \IeC {\cyrs }\IeC {\cyri }\IeC {\cyrs }\IeC {\cyrt }\IeC {\cyre }\IeC {\cyrm }}{46}}
\@writefile{toc}{\contentsline {subsection}{\numberline {1.6.5}\IeC {\CYRS }\IeC {\cyri }\IeC {\cyrs }\IeC {\cyrt }\IeC {\cyre }\IeC {\cyrm }\IeC {\cyrery } \IeC {\cyrs } \IeC {\cyrk }\IeC {\cyro }\IeC {\cyrn }\IeC {\cyre }\IeC {\cyrch }\IeC {\cyrn }\IeC {\cyro }\IeC {\cyrishrt } \IeC {\cyrp }\IeC {\cyra }\IeC {\cyrm }\IeC {\cyrya }\IeC {\cyrt }\IeC {\cyrsftsn }\IeC {\cyryu }. \IeC {\CYRS }\IeC {\cyri }\IeC {\cyrn }\IeC {\cyrt }\IeC {\cyre }\IeC {\cyrz } \IeC {\cyri }\IeC {\cyrm }\IeC {\cyrp }\IeC {\cyru }\IeC {\cyrl }\IeC {\cyrsftsn }\IeC {\cyrs }\IeC {\cyrn }\IeC {\cyrery }\IeC {\cyrh } \IeC {\cyrs }\IeC {\cyri }\IeC {\cyrs }\IeC {\cyrt }\IeC {\cyre }\IeC {\cyrm } \IeC {\cyrs } \IeC {\cyrm }\IeC {\cyra }\IeC {\cyrk }\IeC {\cyrs }\IeC {\cyri }\IeC {\cyrm }\IeC {\cyra }\IeC {\cyrl }\IeC {\cyrsftsn }\IeC {\cyrn }\IeC {\cyrery }\IeC {\cyrm } \IeC {\cyrb }\IeC {\cyrery }\IeC {\cyrs }\IeC {\cyrt }\IeC {\cyrr }\IeC {\cyro }\IeC {\cyrd }\IeC {\cyre }\IeC {\cyrishrt }\IeC {\cyrs }\IeC {\cyrt }\IeC {\cyrv }\IeC {\cyri }\IeC {\cyre }\IeC {\cyrm }}{50}}
\@writefile{toc}{\contentsline {section}{\numberline {1.7}\IeC {\CYRS }\IeC {\cyri }\IeC {\cyrs }\IeC {\cyrt }\IeC {\cyre }\IeC {\cyrm }\IeC {\cyrery } \IeC {\cyrs } \IeC {\cyrk }\IeC {\cyro }\IeC {\cyrn }\IeC {\cyre }\IeC {\cyrch }\IeC {\cyrn }\IeC {\cyro }\IeC {\cyrishrt } \IeC {\cyrp }\IeC {\cyra }\IeC {\cyrm }\IeC {\cyrya }\IeC {\cyrt }\IeC {\cyrsftsn }\IeC {\cyryu }. \IeC {\CYRS }\IeC {\cyri }\IeC {\cyrn }\IeC {\cyrt }\IeC {\cyre }\IeC {\cyrz } \IeC {\cyri }\IeC {\cyrm }\IeC {\cyrp }\IeC {\cyru }\IeC {\cyrl }\IeC {\cyrsftsn }\IeC {\cyrs }\IeC {\cyrn }\IeC {\cyrery }\IeC {\cyrh } \IeC {\cyrs }\IeC {\cyri }\IeC {\cyrs }\IeC {\cyrt }\IeC {\cyre }\IeC {\cyrm } \IeC {\cyrs } \IeC {\cyrm }\IeC {\cyra }\IeC {\cyrk }\IeC {\cyrs }\IeC {\cyri }\IeC {\cyrm }\IeC {\cyra }\IeC {\cyrl }\IeC {\cyrsftsn }\IeC {\cyrn }\IeC {\cyrery }\IeC {\cyrm } \IeC {\cyrb }\IeC {\cyrery }\IeC {\cyrs }\IeC {\cyrt }\IeC {\cyrr }\IeC {\cyro }\IeC {\cyrd }\IeC {\cyre }\IeC {\cyrishrt }\IeC {\cyrs }\IeC {\cyrt }\IeC {\cyrv }\IeC {\cyri }\IeC {\cyre }\IeC {\cyrm }}{50}}
\@writefile{toc}{\contentsline {section}{\numberline {1.8}\IeC {\CYRV }\IeC {\cyre }\IeC {\cyrk }\IeC {\cyrt }\IeC {\cyro }\IeC {\cyrr }\IeC {\cyrn }\IeC {\cyro }-\IeC {\cyrm }\IeC {\cyra }\IeC {\cyrt }\IeC {\cyrr }\IeC {\cyri }\IeC {\cyrch }\IeC {\cyrn }\IeC {\cyro }\IeC {\cyre } \IeC {\cyro }\IeC {\cyrp }\IeC {\cyri }\IeC {\cyrs }\IeC {\cyra }\IeC {\cyrn }\IeC {\cyri }\IeC {\cyre } \IeC {\cyrn }\IeC {\cyre }\IeC {\cyrp }\IeC {\cyrr }\IeC {\cyre }\IeC {\cyrr }\IeC {\cyrery }\IeC {\cyrv }\IeC {\cyrn }\IeC {\cyrery }\IeC {\cyrh } \IeC {\cyro }\IeC {\cyrb }\IeC {\cyrhrdsn }\IeC {\cyre }\IeC {\cyrk }\IeC {\cyrt }\IeC {\cyro }\IeC {\cyrv } \IeC {\cyrs } \IeC {\cyrd }\IeC {\cyri }\IeC {\cyrs }\IeC {\cyrk }\IeC {\cyrr }\IeC {\cyre }\IeC {\cyrt }\IeC {\cyrn }\IeC {\cyrery }\IeC {\cyrm } \IeC {\cyru }\IeC {\cyrp }\IeC {\cyrr }\IeC {\cyra }\IeC {\cyrv }\IeC {\cyrl }\IeC {\cyre }\IeC {\cyrn }\IeC {\cyri }\IeC {\cyre }\IeC {\cyrm }}{53}}
\@writefile{lof}{\contentsline {figure}{\numberline {1.20}{\ignorespaces \IeC {\CYRS }\IeC {\cyrh }\IeC {\cyre }\IeC {\cyrm }\IeC {\cyra } \IeC {\cyro }\IeC {\cyrb }\IeC {\cyrhrdsn }\IeC {\cyre }\IeC {\cyrk }\IeC {\cyrt }\IeC {\cyra } \IeC {\cyrs } \IeC {\cyrd }\IeC {\cyri }\IeC {\cyrs }\IeC {\cyrk }\IeC {\cyrr }\IeC {\cyre }\IeC {\cyrt }\IeC {\cyrn }\IeC {\cyrery }\IeC {\cyrm } \IeC {\cyru }\IeC {\cyrp }\IeC {\cyrr }\IeC {\cyra }\IeC {\cyrv }\IeC {\cyrl }\IeC {\cyre }\IeC {\cyrn }\IeC {\cyri }\IeC {\cyre }\IeC {\cyrm }}}{53}}
\@writefile{toc}{\contentsline {subsection}{\numberline {1.8.1}\IeC {\CYRS }\IeC {\cyri }\IeC {\cyrs }\IeC {\cyrt }\IeC {\cyre }\IeC {\cyrm }\IeC {\cyrery } \IeC {\cyrs } \IeC {\cyrc }\IeC {\cyri }\IeC {\cyrf }\IeC {\cyrr }\IeC {\cyro }\IeC {\cyra }\IeC {\cyrn }\IeC {\cyra }\IeC {\cyrl }\IeC {\cyro }\IeC {\cyrg }\IeC {\cyro }\IeC {\cyrv }\IeC {\cyrery }\IeC {\cyrm } \IeC {\cyrp }\IeC {\cyrr }\IeC {\cyre }\IeC {\cyro }\IeC {\cyrb }\IeC {\cyrr }\IeC {\cyra }\IeC {\cyrz }\IeC {\cyro }\IeC {\cyrv }\IeC {\cyra }\IeC {\cyrt }\IeC {\cyre }\IeC {\cyrl }\IeC {\cyre }\IeC {\cyrm } \IeC {\cyrn }\IeC {\cyru }\IeC {\cyrl }\IeC {\cyre }\IeC {\cyrv }\IeC {\cyro }\IeC {\cyrg }\IeC {\cyro } \IeC {\cyrp }\IeC {\cyro }\IeC {\cyrr }\IeC {\cyrya }\IeC {\cyrd }\IeC {\cyrk }\IeC {\cyra }}{54}}
\@writefile{lof}{\contentsline {figure}{\numberline {1.21}{\ignorespaces \IeC {\CYRV }\IeC {\cyri }\IeC {\cyrd } \IeC {\cyrs }\IeC {\cyri }\IeC {\cyrg }\IeC {\cyrn }\IeC {\cyra }\IeC {\cyrl }\IeC {\cyra } \IeC {\cyrn }\IeC {\cyra } \IeC {\cyrv }\IeC {\cyrery }\IeC {\cyrh }\IeC {\cyro }\IeC {\cyrd }\IeC {\cyre } \IeC {\CYRC }\IeC {\CYRA }\IeC {\CYRP }}}{54}}
\@writefile{toc}{\contentsline {subsection}{\numberline {1.8.2}\IeC {\CYRS }\IeC {\cyri }\IeC {\cyrs }\IeC {\cyrt }\IeC {\cyre }\IeC {\cyrm }\IeC {\cyra } \IeC {\cyrs } \IeC {\cyrc }\IeC {\cyri }\IeC {\cyrf }\IeC {\cyrr }\IeC {\cyro }\IeC {\cyra }\IeC {\cyrn }\IeC {\cyra }\IeC {\cyrl }\IeC {\cyro }\IeC {\cyrg }\IeC {\cyro }\IeC {\cyrv }\IeC {\cyrery }\IeC {\cyrm } \IeC {\cyrp }\IeC {\cyrr }\IeC {\cyre }\IeC {\cyro }\IeC {\cyrb }\IeC {\cyrr }\IeC {\cyra }\IeC {\cyrz }\IeC {\cyro }\IeC {\cyrv }\IeC {\cyra }\IeC {\cyrt }\IeC {\cyre }\IeC {\cyrl }\IeC {\cyre }\IeC {\cyrm } \IeC {\cyrn }\IeC {\cyru }\IeC {\cyrl }\IeC {\cyre }\IeC {\cyrv }\IeC {\cyro }\IeC {\cyrg }\IeC {\cyro } \IeC {\cyrp }\IeC {\cyro }\IeC {\cyrr }\IeC {\cyrya }\IeC {\cyrd }\IeC {\cyrk }\IeC {\cyra } \IeC {\cyrs } \IeC {\cyrz }\IeC {\cyra }\IeC {\cyrd }\IeC {\cyre }\IeC {\cyrr }\IeC {\cyrzh }\IeC {\cyrk }\IeC {\cyro }\IeC {\cyrishrt } \IeC {\cyrv } \IeC {\cyrv }\IeC {\cyrery }\IeC {\cyrd }\IeC {\cyra }\IeC {\cyrch }\IeC {\cyre } \IeC {\cyru }\IeC {\cyrp }\IeC {\cyrr }\IeC {\cyra }\IeC {\cyrv }\IeC {\cyrl }\IeC {\cyre }\IeC {\cyrn }\IeC {\cyri }\IeC {\cyrya } (\IeC {\cyro }\IeC {\cyrt }\IeC {\cyrn }\IeC {\cyro }\IeC {\cyrs }\IeC {\cyri }\IeC {\cyrt }\IeC {\cyre }\IeC {\cyrl }\IeC {\cyrsftsn }\IeC {\cyrn }\IeC {\cyro } \IeC {\cyrm }\IeC {\cyro }\IeC {\cyrm }\IeC {\cyre }\IeC {\cyrn }\IeC {\cyrt }\IeC {\cyra } \IeC {\cyri }\IeC {\cyrz }\IeC {\cyrm }\IeC {\cyre }\IeC {\cyrr }\IeC {\cyre }\IeC {\cyrn }\IeC {\cyri }\IeC {\cyrya })}{55}}
\@writefile{lof}{\contentsline {figure}{\numberline {1.22}{\ignorespaces \IeC {\CYRS }\IeC {\cyri }\IeC {\cyrg }\IeC {\cyrn }\IeC {\cyra }\IeC {\cyrl } \IeC {\cyrn }\IeC {\cyra } \IeC {\cyrv }\IeC {\cyrery }\IeC {\cyrh }\IeC {\cyro }\IeC {\cyrd }\IeC {\cyre } \IeC {\CYRC }\IeC {\CYRA }\IeC {\CYRP } \IeC {\cyrs } \IeC {\cyrz }\IeC {\cyra }\IeC {\cyrd }\IeC {\cyre }\IeC {\cyrr }\IeC {\cyrzh }\IeC {\cyrk }\IeC {\cyro }\IeC {\cyrishrt }}}{55}}
\@writefile{toc}{\contentsline {subsection}{\numberline {1.8.3}\IeC {\CYRI }\IeC {\cyrm }\IeC {\cyrp }\IeC {\cyru }\IeC {\cyrl }\IeC {\cyrsftsn }\IeC {\cyrs }\IeC {\cyrn }\IeC {\cyrery }\IeC {\cyre } \IeC {\cyrs }\IeC {\cyri }\IeC {\cyrs }\IeC {\cyrt }\IeC {\cyre }\IeC {\cyrm }\IeC {\cyrery } \IeC {\cyrs } \IeC {\cyrk }\IeC {\cyrr }\IeC {\cyra }\IeC {\cyrt }\IeC {\cyrn }\IeC {\cyrery }\IeC {\cyrm }\IeC {\cyri } \IeC {\cyrch }\IeC {\cyra }\IeC {\cyrs }\IeC {\cyrt }\IeC {\cyro }\IeC {\cyrt }\IeC {\cyra }\IeC {\cyrm }\IeC {\cyri } \IeC {\cyrk }\IeC {\cyrv }\IeC {\cyra }\IeC {\cyrn }\IeC {\cyrt }\IeC {\cyro }\IeC {\cyrv }\IeC {\cyra }\IeC {\cyrn }\IeC {\cyri }\IeC {\cyrya }}{56}}
\@writefile{lof}{\contentsline {figure}{\numberline {1.23}{\ignorespaces \IeC {\CYRS }\IeC {\cyrh }\IeC {\cyre }\IeC {\cyrm }\IeC {\cyra } \IeC {\cyrs } \IeC {\cyrk }\IeC {\cyrr }\IeC {\cyra }\IeC {\cyrt }\IeC {\cyrn }\IeC {\cyrery }\IeC {\cyrm }\IeC {\cyri } \IeC {\cyrch }\IeC {\cyra }\IeC {\cyrs }\IeC {\cyrt }\IeC {\cyro }\IeC {\cyrt }\IeC {\cyra }\IeC {\cyrm }\IeC {\cyri }}}{56}}
\@writefile{lof}{\contentsline {figure}{\numberline {1.24}{\ignorespaces \IeC {\CYRI }\IeC {\cyrn }\IeC {\cyrt }\IeC {\cyre }\IeC {\cyrr }\IeC {\cyrv }\IeC {\cyra }\IeC {\cyrl } \IeC {\cyrv }\IeC {\cyrr }\IeC {\cyre }\IeC {\cyrm }\IeC {\cyre }\IeC {\cyrn }\IeC {\cyri } \IeC {\cyro }\IeC {\cyrt } i \IeC {\cyrd }\IeC {\cyro } (i+1)}}{56}}
\@writefile{toc}{\contentsline {subsection}{\numberline {1.8.4}\IeC {\CYRD }\IeC {\cyri }\IeC {\cyrs }\IeC {\cyrk }\IeC {\cyrr }\IeC {\cyre }\IeC {\cyrt }\IeC {\cyrn }\IeC {\cyrery }\IeC {\cyrishrt } \IeC {\cyra }\IeC {\cyrn }\IeC {\cyra }\IeC {\cyrl }\IeC {\cyro }\IeC {\cyrg } \IeC {\cyrf }\IeC {\cyro }\IeC {\cyrr }\IeC {\cyrm }\IeC {\cyru }\IeC {\cyrl }\IeC {\cyrery } \IeC {\CYRK }\IeC {\cyro }\IeC {\cyrsh }\IeC {\cyri }}{58}}
\@writefile{toc}{\contentsline {subsection}{\numberline {1.8.5}\IeC {\CYRR }\IeC {\cyre }\IeC {\cyra }\IeC {\cyrl }\IeC {\cyri }\IeC {\cyrz }\IeC {\cyra }\IeC {\cyrc }\IeC {\cyri }\IeC {\cyrya } \IeC {\cyrr }\IeC {\cyre }\IeC {\cyrk }\IeC {\cyru }\IeC {\cyrr }\IeC {\cyrr }\IeC {\cyre }\IeC {\cyrn }\IeC {\cyrt }\IeC {\cyrn }\IeC {\cyro }\IeC {\cyrg }\IeC {\cyro } \IeC {\cyra }\IeC {\cyrl }\IeC {\cyrg }\IeC {\cyro }\IeC {\cyrr }\IeC {\cyri }\IeC {\cyrt }\IeC {\cyrm }\IeC {\cyra } 1}{59}}
\@writefile{toc}{\contentsline {subsection}{\numberline {1.8.6}\IeC {\CYRR }\IeC {\cyre }\IeC {\cyra }\IeC {\cyrl }\IeC {\cyri }\IeC {\cyrz }\IeC {\cyra }\IeC {\cyrc }\IeC {\cyri }\IeC {\cyrya } \IeC {\cyrr }\IeC {\cyre }\IeC {\cyrk }\IeC {\cyru }\IeC {\cyrr }\IeC {\cyrr }\IeC {\cyre }\IeC {\cyrn }\IeC {\cyrt }\IeC {\cyrn }\IeC {\cyro }\IeC {\cyrg }\IeC {\cyro } \IeC {\cyra }\IeC {\cyrl }\IeC {\cyrg }\IeC {\cyro }\IeC {\cyrr }\IeC {\cyri }\IeC {\cyrt }\IeC {\cyrm }\IeC {\cyra } 2}{59}}
\newlabel{ris:image}{{1.8.6}{61}}
\@writefile{toc}{\contentsline {subsection}{\numberline {1.8.7}\IeC {\CYRO }\IeC {\cyrs }\IeC {\cyrn }\IeC {\cyro }\IeC {\cyrv }\IeC {\cyrn }\IeC {\cyrery }\IeC {\cyre } \IeC {\cyrs }\IeC {\cyro }\IeC {\cyro }\IeC {\cyrt }\IeC {\cyrn }\IeC {\cyro }\IeC {\cyrsh }\IeC {\cyre }\IeC {\cyrn }\IeC {\cyri }\IeC {\cyrya } \IeC {\cyrm }\IeC {\cyre }\IeC {\cyrzh }\IeC {\cyrd }\IeC {\cyru } \IeC {\cyrs }\IeC {\cyrp }\IeC {\cyre }\IeC {\cyrk }\IeC {\cyrt }\IeC {\cyrr }\IeC {\cyra }\IeC {\cyrl }\IeC {\cyrsftsn }\IeC {\cyrn }\IeC {\cyrery }\IeC {\cyrm }\IeC {\cyri } \IeC {\cyrh }\IeC {\cyra }\IeC {\cyrr }\IeC {\cyra }\IeC {\cyrk }\IeC {\cyrt }\IeC {\cyre }\IeC {\cyrr }\IeC {\cyri }\IeC {\cyrs }\IeC {\cyrt }\IeC {\cyri }\IeC {\cyrk }\IeC {\cyra }\IeC {\cyrm }\IeC {\cyri } \IeC {\cyrn }\IeC {\cyre }\IeC {\cyrp }\IeC {\cyrr }\IeC {\cyre }\IeC {\cyrr }\IeC {\cyrery }\IeC {\cyrv }\IeC {\cyrn }\IeC {\cyrery }\IeC {\cyrh } \IeC {\cyri } \IeC {\cyrd }\IeC {\cyri }\IeC {\cyrs }\IeC {\cyrk }\IeC {\cyrr }\IeC {\cyre }\IeC {\cyrt }\IeC {\cyrn }\IeC {\cyrery }\IeC {\cyrh } \IeC {\cyrs }\IeC {\cyri }\IeC {\cyrg }\IeC {\cyrn }\IeC {\cyra }\IeC {\cyrl }\IeC {\cyro }\IeC {\cyrv }}{61}}
\newlabel{GrindEQ__1_}{{1.28}{62}}
\newlabel{ris:image}{{1.8.7}{65}}
\newlabel{ris:image}{{1.8.7}{66}}
